^C:\USERS\ATA\DESKTOP\MYCPPUTEST_V4\MYEMBEDED\DIVIDE\DIV.C|C:\USERS\ATA\DESKTOP\MYCPPUTEST_V4\MYEMBEDED\MULTIPLY\MUL.C|C:\USERS\ATA\DESKTOP\MYCPPUTEST_V4\MYEMBEDED\MYCFILES\ADD_SUB.C|C:\USERS\ATA\DESKTOP\MYCPPUTEST_V4\MYEMBEDED\MYCFILES\MAIN.C
C:\USERS\ATA\DESKTOP\MYCPPUTEST_V4\DEBUG\CFILES.PDB
C:\USERS\ATA\DESKTOP\MYCPPUTEST_V4\MYEMBEDED\MYCFILES\DEBUG\MAIN.OBJ
C:\USERS\ATA\DESKTOP\MYCPPUTEST_V4\MYEMBEDED\MYCFILES\DEBUG\ADD_SUB.OBJ
C:\USERS\ATA\DESKTOP\MYCPPUTEST_V4\MYEMBEDED\MYCFILES\DEBUG\MUL.OBJ
C:\USERS\ATA\DESKTOP\MYCPPUTEST_V4\MYEMBEDED\MYCFILES\DEBUG\DIV.OBJ
^C:\USERS\ATA\DESKTOP\MYCPPUTEST_V4\MYEMBEDED\DIVIDE\DIV.C
C:\USERS\ATA\DESKTOP\MYCPPUTEST_V4\DEBUG\CFILES.PDB
^C:\USERS\ATA\DESKTOP\MYCPPUTEST_V4\MYEMBEDED\MULTIPLY\MUL.C
C:\USERS\ATA\DESKTOP\MYCPPUTEST_V4\DEBUG\CFILES.PDB
^C:\USERS\ATA\DESKTOP\MYCPPUTEST_V4\MYEMBEDED\MYCFILES\ADD_SUB.C
C:\USERS\ATA\DESKTOP\MYCPPUTEST_V4\DEBUG\CFILES.PDB
^C:\USERS\ATA\DESKTOP\MYCPPUTEST_V4\MYEMBEDED\MYCFILES\MAIN.C
C:\USERS\ATA\DESKTOP\MYCPPUTEST_V4\DEBUG\CFILES.PDB
